<svg xmlns="http://www.w3.org/2000/svg" width="21.522" height="21.512" viewBox="0 0 21.522 21.512">
  <g id="Search" transform="translate(0.775 0.775)">
    <path id="Oval_210" data-name="Oval 210" d="M12,53.06a8.06,8.06,0,1,0-6.194.073A8.06,8.06,0,0,0,12,53.06Z" transform="translate(-0.754 -37.594)" fill="none" stroke="#fff" stroke-linecap="round" stroke-linejoin="round" stroke-width="1.5"/>
    <path id="Shape_1557" data-name="Shape 1557" d="M14.5,51.33l6.25,6.25" transform="translate(-0.754 -37.594)" fill="none" stroke="#fff" stroke-linecap="round" stroke-linejoin="round" stroke-width="1.5"/>
  </g>
</svg>
